{
    "key": "group_5489a7e568e83",
    "title": "News",
    "fields": [
        {
            "key": "field_5489a7ea12e49",
            "label": "Link To Article",
            "name": "link_to_article",
            "prefix": "",
            "type": "repeater",
            "instructions": "",
            "required": 0,
            "conditional_logic": 0,
            "min": 1,
            "max": 1,
            "layout": "table",
            "button_label": "Add Row",
            "sub_fields": [
                {
                    "key": "field_5489a81312e4a",
                    "label": "Link",
                    "name": "link",
                    "prefix": "",
                    "type": "text",
                    "instructions": "",
                    "required": 0,
                    "conditional_logic": 0,
                    "column_width": "",
                    "default_value": "",
                    "placeholder": "",
                    "prepend": "",
                    "append": "",
                    "maxlength": "",
                    "readonly": 0,
                    "disabled": 0
                },
                {
                    "key": "field_5489a82a12e4b",
                    "label": "Link Title",
                    "name": "link_title",
                    "prefix": "",
                    "type": "text",
                    "instructions": "",
                    "required": 0,
                    "conditional_logic": 0,
                    "column_width": "",
                    "default_value": "",
                    "placeholder": "",
                    "prepend": "",
                    "append": "",
                    "maxlength": "",
                    "readonly": 0,
                    "disabled": 0
                }
            ]
        }
    ],
    "location": [
        [
            {
                "param": "post_type",
                "operator": "==",
                "value": "news"
            }
        ]
    ],
    "menu_order": 0,
    "position": "normal",
    "style": "default",
    "label_placement": "top",
    "instruction_placement": "label",
    "hide_on_screen": [
        "excerpt",
        "discussion",
        "comments",
        "author",
        "format",
        "categories",
        "tags",
        "send-trackbacks"
    ]
}