{
    "key": "group_54806b0b826af",
    "title": "Stores Page",
    "fields": [
        {
            "key": "field_54806b1ca68dc",
            "label": "Retail Partners Title",
            "name": "retail_partners_title",
            "prefix": "",
            "type": "text",
            "instructions": "",
            "required": 0,
            "conditional_logic": 0,
            "default_value": "",
            "placeholder": "",
            "prepend": "",
            "append": "",
            "maxlength": "",
            "readonly": 0,
            "disabled": 0
        },
        {
            "key": "field_54806b2f280b1",
            "label": "Duck Head Stores Title",
            "name": "duck_head_stores_title",
            "prefix": "",
            "type": "text",
            "instructions": "",
            "required": 0,
            "conditional_logic": 0,
            "default_value": "",
            "placeholder": "",
            "prepend": "",
            "append": "",
            "maxlength": "",
            "readonly": 0,
            "disabled": 0
        },
        {
            "key": "field_54806b484551f",
            "label": "Retail International Partners title",
            "name": "retail_international_partners_title",
            "prefix": "",
            "type": "text",
            "instructions": "",
            "required": 0,
            "conditional_logic": 0,
            "default_value": "",
            "placeholder": "",
            "prepend": "",
            "append": "",
            "maxlength": "",
            "readonly": 0,
            "disabled": 0
        }
    ],
    "location": [
        [
            {
                "param": "page",
                "operator": "==",
                "value": "7399"
            }
        ]
    ],
    "menu_order": 0,
    "position": "acf_after_title",
    "style": "default",
    "label_placement": "top",
    "instruction_placement": "label",
    "hide_on_screen": [
        "the_content"
    ]
}